ALU/ALU.vcd
$date
  Thu Aug 22 22:10:11 2013
$end
$version
  GHDL v0
$end
$timescale
  1 fs
$end
$var reg 32 ! a[31:0] $end
$var reg 32 " b[31:0] $end
$var reg 32 # result[31:0] $end
$var reg 3 $ alucontrol[2:0] $end
$var reg 1 % zero $end
$scope module u0 $end
$var reg 32 & a[31:0] $end
$var reg 32 ' b[31:0] $end
$var reg 3 ( alucontrol[2:0] $end
$var reg 1 ) zero $end
$var reg 32 * result[31:0] $end
$upscope $end
$enddefinitions $end
#0
bUUUUUUUUUUUUUUUUUUUUUUUUUUUUUUUU !
bUUUUUUUUUUUUUUUUUUUUUUUUUUUUUUUU "
b00000000000000000000000000000000 #
b011 $
1%
bUUUUUUUUUUUUUUUUUUUUUUUUUUUUUUUU &
bUUUUUUUUUUUUUUUUUUUUUUUUUUUUUUUU '
b011 (
1)
b00000000000000000000000000000000 *
#5
bUUUUUUUUUUUUUUUUUUUUUUUUUUUUUUUU #
b001 $
b001 (
bUUUUUUUUUUUUUUUUUUUUUUUUUUUUUUUU *
#13
bXXXXXXXXXXXXXXXXXXXXXXXXXXXXXXXX #
b010 $
b010 (
bXXXXXXXXXXXXXXXXXXXXXXXXXXXXXXXX *
#15
b01100110001001110001000000000000 !
b01100110001001110001000000000000 &
#18
b0UU00UU000U00UUU000U000000000000 #
b100 $
b100 (
b0UU00UU000U00UUU000U000000000000 *
#20
b000 $
b000 (
#24
b00000000000000000000000000000001 !
b0000000000000000000000000000000U #
b00000000000000000000000000000001 &
b0000000000000000000000000000000U *
#30
b00100010001000010001000000000000 !
b10101010000100010000000000000000 "
b00100010000000010000000000000000 #
b00100010001000010001000000000000 &
b10101010000100010000000000000000 '
b00100010000000010000000000000000 *
#35
b01111000000100000001000000000000 #
b110 $
b110 (
b01111000000100000001000000000000 *
#45
b11111111111111110000000000000001 "
b00100010001000100000111111111111 #
b11111111111111110000000000000001 '
b00100010001000100000111111111111 *
#50
b00010001000100011000011100000000 !
b00010001000100101000011011111111 #
b00010001000100011000011100000000 &
b00010001000100101000011011111111 *
#52
b00010001000100010000000000000001 "
b00000000000000001000011011111111 #
b00010001000100010000000000000001 '
b00000000000000001000011011111111 *
#61
b11001100110011010000000000000000 "
b01000100010001001000011100000000 #
b11001100110011010000000000000000 '
b01000100010001001000011100000000 *
#65
b00010001000100010001000100010001 !
b00110011001100111111111111111111 #
b101 $
b00010001000100010001000100010001 &
b101 (
b00110011001100111111111111111111 *
#70
b10101011110011010000000000000000 "
b00000000000000000000000000000000 #
b011 $
b10101011110011010000000000000000 '
b011 (
b00000000000000000000000000000000 *
#75
b10111011110111010001000100010001 #
b001 $
b001 (
b10111011110111010001000100010001 *
#83
b10111100110111100001000100010001 #
b010 $
b010 (
b10111100110111100001000100010001 *
#86
b00000000000000000000000000000001 !
b10101011110011010000000000000001 #
b00000000000000000000000000000001 &
b10101011110011010000000000000001 *
#88
b00000000000000000000000000000001 #
b100 $
0%
b100 (
0)
b00000000000000000000000000000001 *
#90
b00000000000000000000000000000000 #
b000 $
1%
b000 (
1)
b00000000000000000000000000000000 *
#100
b10101010000100010000000000000000 "
b10101010000100010000000000000000 '
#101
b01100110001001110001000000000000 !
b00100010000000010000000000000000 #
b01100110001001110001000000000000 &
b00100010000000010000000000000000 *
#105
b10111100000101100001000000000000 #
b110 $
b110 (
b10111100000101100001000000000000 *
#110
b00000000000000000000000000000001 !
b01010101111011110000000000000001 #
b00000000000000000000000000000001 &
b01010101111011110000000000000001 *
#115
b11111111111111110000000000000001 "
b00000000000000010000000000000000 #
b11111111111111110000000000000001 '
b00000000000000010000000000000000 *
#116
b00100010001000010001000000000000 !
b00100010001000100000111111111111 #
b00100010001000010001000000000000 &
b00100010001000100000111111111111 *
#122
b00010001000100010000000000000001 "
b00010001000100000000111111111111 #
b00010001000100010000000000000001 '
b00010001000100000000111111111111 *
#131
b11001100110011010000000000000000 "
b01010101010101000001000000000000 #
b11001100110011010000000000000000 '
b01010101010101000001000000000000 *
#135
b00110011001100111111111111111111 #
b101 $
b101 (
b00110011001100111111111111111111 *
#136
b00010001000100011000011100000000 !
b00010001000100011000011100000000 &
#140
b10101011110011010000000000000000 "
b00000000000000000000000000000000 #
b011 $
b10101011110011010000000000000000 '
b011 (
b00000000000000000000000000000000 *
#145
b10111011110111011000011100000000 #
b001 $
b001 (
b10111011110111011000011100000000 *
#151
b00010001000100010001000100010001 !
b10111011110111010001000100010001 #
b00010001000100010001000100010001 &
b10111011110111010001000100010001 *
#153
b10111100110111100001000100010001 #
b010 $
b010 (
b10111100110111100001000100010001 *
#158
b00010000000100000001000100010001 #
b100 $
b100 (
b00010000000100000001000100010001 *
#160
b00000001000000010000000000000000 #
b000 $
b000 (
b00000001000000010000000000000000 *
#170
b10101010000100010000000000000000 "
b00000000000100010000000000000000 #
b10101010000100010000000000000000 '
b00000000000100010000000000000000 *
#172
b00000000000000000000000000000001 !
b00000000000000000000000000000000 #
b00000000000000000000000000000001 &
b00000000000000000000000000000000 *
#175
b01010101111011110000000000000001 #
b110 $
b110 (
b01010101111011110000000000000001 *
#185
b11111111111111110000000000000001 "
b00000000000000010000000000000000 #
b11111111111111110000000000000001 '
b00000000000000010000000000000000 *
#187
b01100110001001110001000000000000 !
b01100110001010000000111111111111 #
b01100110001001110001000000000000 &
b01100110001010000000111111111111 *
#192
b00010001000100010000000000000001 "
b01010101000101100000111111111111 #
b00010001000100010000000000000001 '
b01010101000101100000111111111111 *
#196
b00000000000000000000000000000001 !
b11101110111011110000000000000000 #
b00000000000000000000000000000001 &
b11101110111011110000000000000000 *
#201
b11001100110011010000000000000000 "
b00110011001100110000000000000001 #
b11001100110011010000000000000000 '
b00110011001100110000000000000001 *
#202
b00100010001000010001000000000000 !
b01010101010101000001000000000000 #
b00100010001000010001000000000000 &
b01010101010101000001000000000000 *
#205
b00110011001100111111111111111111 #
b101 $
b101 (
b00110011001100111111111111111111 *
#210
b10101011110011010000000000000000 "
b00000000000000000000000000000000 #
b011 $
b10101011110011010000000000000000 '
b011 (
b00000000000000000000000000000000 *
#215
b10101011111011010001000000000000 #
b001 $
b001 (
b10101011111011010001000000000000 *
#222
b00010001000100011000011100000000 !
b10111011110111011000011100000000 #
b00010001000100011000011100000000 &
b10111011110111011000011100000000 *
#223
b10111100110111101000011100000000 #
b010 $
b010 (
b10111100110111101000011100000000 *
#228
b00010000000100001000011100000000 #
b100 $
b100 (
b00010000000100001000011100000000 *
#230
b00000001000000010000000000000000 #
b000 $
b000 (
b00000001000000010000000000000000 *
#237
b00010001000100010001000100010001 !
b00010001000100010001000100010001 &
#240
b10101010000100010000000000000000 "
b00000000000100010000000000000000 #
b10101010000100010000000000000000 '
b00000000000100010000000000000000 *
#245
b01100111000000000001000100010001 #
b110 $
b110 (
b01100111000000000001000100010001 *
#255
b11111111111111110000000000000001 "
b00010001000100100001000100010000 #
b11111111111111110000000000000001 '
b00010001000100100001000100010000 *
#258
b00000000000000000000000000000001 !
b00000000000000010000000000000000 #
b00000000000000000000000000000001 &
b00000000000000010000000000000000 *
#262
b00010001000100010000000000000001 "
b11101110111011110000000000000000 #
b00010001000100010000000000000001 '
b11101110111011110000000000000000 *
#271
b11001100110011010000000000000000 "
b00110011001100110000000000000001 #
b11001100110011010000000000000000 '
b00110011001100110000000000000001 *
#273
b01100110001001110001000000000000 !
b10011001010110100001000000000000 #
b01100110001001110001000000000000 &
b10011001010110100001000000000000 *
#275
b01110111001101111111111111111111 #
b101 $
b101 (
b01110111001101111111111111111111 *
#280
b10101011110011010000000000000000 "
b00000000000000000000000000000000 #
b011 $
b10101011110011010000000000000000 '
b011 (
b00000000000000000000000000000000 *
#282
b00000000000000000000000000000001 !
b00000000000000000000000000000001 &
#285
b10101011110011010000000000000001 #
b001 $
b001 (
b10101011110011010000000000000001 *
#288
b00100010001000010001000000000000 !
b10101011111011010001000000000000 #
b00100010001000010001000000000000 &
b10101011111011010001000000000000 *
#293
b11001101111011100001000000000000 #
b010 $
b010 (
b11001101111011100001000000000000 *
#298
b00000000001000000001000000000000 #
b100 $
b100 (
b00000000001000000001000000000000 *
#300
b00100010000000010000000000000000 #
b000 $
b000 (
b00100010000000010000000000000000 *
#308
b00010001000100011000011100000000 !
b00000001000000010000000000000000 #
b00010001000100011000011100000000 &
b00000001000000010000000000000000 *
#310
b10101010000100010000000000000000 "
b00000000000100010000000000000000 #
b10101010000100010000000000000000 '
b00000000000100010000000000000000 *
#315
b01100111000000001000011100000000 #
b110 $
b110 (
b01100111000000001000011100000000 *
#323
b00010001000100010001000100010001 !
b01100111000000000001000100010001 #
b00010001000100010001000100010001 &
b01100111000000000001000100010001 *
#325
b11111111111111110000000000000001 "
b00010001000100100001000100010000 #
b11111111111111110000000000000001 '
b00010001000100100001000100010000 *
#332
b00010001000100010000000000000001 "
b00000000000000000001000100010000 #
b00010001000100010000000000000001 '
b00000000000000000001000100010000 *
#341
b11001100110011010000000000000000 "
b01000100010001000001000100010001 #
b11001100110011010000000000000000 '
b01000100010001000001000100010001 *
#344
b00000000000000000000000000000001 !
b00110011001100110000000000000001 #
b00000000000000000000000000000001 &
b00110011001100110000000000000001 *
#345
b00110011001100101111111111111111 #
b101 $
b101 (
b00110011001100101111111111111111 *
#350
b10101011110011010000000000000000 "
b00000000000000000000000000000000 #
b011 $
b10101011110011010000000000000000 '
b011 (
b00000000000000000000000000000000 *
#355
b10101011110011010000000000000001 #
b001 $
b001 (
b10101011110011010000000000000001 *
#359
b01100110001001110001000000000000 !
b11101111111011110001000000000000 #
b01100110001001110001000000000000 &
b11101111111011110001000000000000 *
#363
b00010001111101000001000000000000 #
b010 $
b010 (
b00010001111101000001000000000000 *
#368
b00000000000000000000000000000001 !
b00000000000000000000000000000001 #
b100 $
0%
b00000000000000000000000000000001 &
b100 (
0)
b00000000000000000000000000000001 *
#370
b00000000000000000000000000000000 #
b000 $
1%
b000 (
1)
b00000000000000000000000000000000 *
#374
b00100010001000010001000000000000 !
b00100010000000010000000000000000 #
b00100010001000010001000000000000 &
b00100010000000010000000000000000 *
#380
b10101010000100010000000000000000 "
b10101010000100010000000000000000 '
#385
b01111000000100000001000000000000 #
b110 $
b110 (
b01111000000100000001000000000000 *
#394
b00010001000100011000011100000000 !
b01100111000000001000011100000000 #
b00010001000100011000011100000000 &
b01100111000000001000011100000000 *
#395
b11111111111111110000000000000001 "
b00010001000100101000011011111111 #
b11111111111111110000000000000001 '
b00010001000100101000011011111111 *
#402
b00010001000100010000000000000001 "
b00000000000000001000011011111111 #
b00010001000100010000000000000001 '
b00000000000000001000011011111111 *
#409
b00010001000100010001000100010001 !
b00000000000000000001000100010000 #
b00010001000100010001000100010001 &
b00000000000000000001000100010000 *
#411
b11001100110011010000000000000000 "
b01000100010001000001000100010001 #
b11001100110011010000000000000000 '
b01000100010001000001000100010001 *
#415
b00110011001100111111111111111111 #
b101 $
b101 (
b00110011001100111111111111111111 *
#420
b10101011110011010000000000000000 "
b00000000000000000000000000000000 #
b011 $
b10101011110011010000000000000000 '
b011 (
b00000000000000000000000000000000 *
#425
b10111011110111010001000100010001 #
b001 $
b001 (
b10111011110111010001000100010001 *
#430
b00000000000000000000000000000001 !
b10101011110011010000000000000001 #
b00000000000000000000000000000001 &
b10101011110011010000000000000001 *
#433
b010 $
b010 (
#438
b00000000000000000000000000000001 #
b100 $
0%
b100 (
0)
b00000000000000000000000000000001 *
#440
b00000000000000000000000000000000 #
b000 $
1%
b000 (
1)
b00000000000000000000000000000000 *
#445
b01100110001001110001000000000000 !
b00100010000001010000000000000000 #
b01100110001001110001000000000000 &
b00100010000001010000000000000000 *
#450
b10101010000100010000000000000000 "
b00100010000000010000000000000000 #
b10101010000100010000000000000000 '
b00100010000000010000000000000000 *
#454
b00000000000000000000000000000001 !
b00000000000000000000000000000000 #
b00000000000000000000000000000001 &
b00000000000000000000000000000000 *
#455
b01010101111011110000000000000001 #
b110 $
b110 (
b01010101111011110000000000000001 *
#460
b00100010001000010001000000000000 !
b01111000000100000001000000000000 #
b00100010001000010001000000000000 &
b01111000000100000001000000000000 *
#465
b11111111111111110000000000000001 "
b00100010001000100000111111111111 #
b11111111111111110000000000000001 '
b00100010001000100000111111111111 *
#472
b00010001000100010000000000000001 "
b00010001000100000000111111111111 #
b00010001000100010000000000000001 '
b00010001000100000000111111111111 *
#480
b00010001000100011000011100000000 !
b00000000000000001000011011111111 #
b00010001000100011000011100000000 &
b00000000000000001000011011111111 *
#481
b11001100110011010000000000000000 "
b01000100010001001000011100000000 #
b11001100110011010000000000000000 '
b01000100010001001000011100000000 *
#485
b00110011001100111111111111111111 #
b101 $
b101 (
b00110011001100111111111111111111 *
#490
b10101011110011010000000000000000 "
b00000000000000000000000000000000 #
b011 $
b10101011110011010000000000000000 '
b011 (
b00000000000000000000000000000000 *
#495
b00010001000100010001000100010001 !
b10111011110111010001000100010001 #
b001 $
b00010001000100010001000100010001 &
b001 (
b10111011110111010001000100010001 *
